MapBounds ( 68 , 889 ) ( 1522 , 889 ) ( 68 , 64 ) ( 1522 , 64 )

SpawnPoint ( 136 , 538 ) 

MapExit ( 1394 , 534 ) 

MapLine 1 ( 69 , 582 ) ( 589 , 582 ) 0 0
MapLine 2 ( 589 , 582 ) ( 589 , 329 ) 0 1
MapLine 3 ( 589 , 329 ) ( 696 , 329 ) 0 0
MapLine 4 ( 696 , 329 ) ( 996 , 582 ) 0 0
MapLine 5 ( 996 , 582 ) ( 1516 , 582 ) 0 0
MapLine 6 ( 504 , 513 ) ( 504 , 198 ) 0 1
MapLine 7 ( 504 , 198 ) ( 417 , 198 ) 0 1
MapLine 8 ( 417 , 198 ) ( 504 , 513 ) 0 0
