MapBounds ( 68 , 889 ) ( 1522 , 889 ) ( 68 , 64 ) ( 1522 , 64 )

SpawnPoint ( 110 , 396 ) 

MapExit ( 1453 , 516 ) 

MapLine 1 ( 70 , 441 ) ( 157 , 441 ) 0 0
MapLine 2 ( 157 , 441 ) ( 270 , 566 ) 0 0
MapLine 3 ( 270 , 566 ) ( 270 , 881 ) 0 0
MapLine 4 ( 384 , 596 ) ( 450 , 596 ) 0 0
MapLine 5 ( 450 , 596 ) ( 417 , 637 ) 0 1
MapLine 6 ( 417 , 637 ) ( 384 , 596 ) 0 1
MapLine 7 ( 564 , 565 ) ( 680 , 565 ) 0 0
MapLine 8 ( 564 , 566 ) ( 564 , 600 ) 0 0
MapLine 9 ( 564 , 600 ) ( 680 , 600 ) 0 0
MapLine 10 ( 680 , 600 ) ( 680 , 566 ) 0 1
MapLine 11 ( 793 , 596 ) ( 826 , 637 ) 0 0
MapLine 12 ( 826 , 637 ) ( 860 , 596 ) 0 0
MapLine 13 ( 860 , 596 ) ( 793 , 596 ) 0 1
MapLine 14 ( 973 , 566 ) ( 973 , 600 ) 0 0
MapLine 15 ( 973 , 601 ) ( 1089 , 601 ) 0 0
MapLine 16 ( 1089 , 600 ) ( 1089 , 566 ) 0 1
MapLine 17 ( 1089 , 566 ) ( 973 , 566 ) 0 1
MapLine 18 ( 1202 , 596 ) ( 1236 , 637 ) 0 0
MapLine 19 ( 1236 , 637 ) ( 1269 , 596 ) 0 0
MapLine 20 ( 1269 , 596 ) ( 1202 , 596 ) 0 1
MapLine 21 ( 1382 , 566 ) ( 1382 , 882 ) 0 0
MapLine 22 ( 1382 , 566 ) ( 1516 , 566 ) 0 0
MapLine 29 ( 408 , 408 ) ( 428 , 408 ) 0 0
MapLine 30 ( 408 , 408 ) ( 408 , 68 ) 0 1
MapLine 31 ( 428 , 408 ) ( 428 , 68 ) 0 1
MapLine 32 ( 816 , 408 ) ( 836 , 408 ) 0 0
MapLine 33 ( 816 , 408 ) ( 816 , 68 ) 0 1
MapLine 34 ( 836 , 408 ) ( 836 , 68 ) 0 1
MapLine 36 ( 1226 , 410 ) ( 1246 , 410 ) 0 0
MapLine 37 ( 1226 , 410 ) ( 1226 , 68 ) 0 1
MapLine 38 ( 1246 , 410 ) ( 1246 , 68 ) 0 1

WreckingBall 23 ( 1234 , 410 ) 45 160
WreckingBall 25 ( 417 , 409 ) 45 160
WreckingBall 27 ( 826 , 410 ) 135 160
