MapBounds ( 68 , 889 ) ( 1522 , 889 ) ( 68 , 64 ) ( 1522 , 64 )

SpawnPoint ( 190 , 248 ) 

MapExit ( 1312 , 837 ) 

MapLine 1 ( 120 , 301 ) ( 270 , 301 ) 0 0
MapLine 2 ( 270 , 301 ) ( 424 , 514 ) 0 0
MapLine 3 ( 424 , 514 ) ( 570 , 514 ) 0 0
MapLine 4 ( 570 , 514 ) ( 784 , 768 ) 0 0
MapLine 5 ( 784 , 768 ) ( 1104 , 768 ) 0 0
MapLine 6 ( 1104 , 768 ) ( 1104 , 881 ) 0 0
MapLine 9 ( 120 , 301 ) ( 120 , 881 ) 0 0

SawBlade 7 ( 460 , 514 )
SawBlade 8 ( 818 , 762 )
SawBlade 10 ( 536 , 514 )
